d:\desktop\507\pe injection & process hollowing\processhollowing\src\processhollowing\release\processhollowing.pch
d:\desktop\507\pe injection & process hollowing\processhollowing\src\processhollowing\release\vc142.pdb
d:\desktop\507\pe injection & process hollowing\processhollowing\src\processhollowing\release\stdafx.obj
d:\desktop\507\pe injection & process hollowing\processhollowing\src\processhollowing\release\processhollowing.obj
d:\desktop\507\pe injection & process hollowing\processhollowing\src\processhollowing\release\pe.obj
d:\desktop\507\pe injection & process hollowing\processhollowing\src\release\processhollowing.exe
d:\desktop\507\pe injection & process hollowing\processhollowing\src\release\processhollowing.pdb
d:\desktop\507\pe injection & process hollowing\processhollowing\src\release\processhollowing.ipdb
d:\desktop\507\pe injection & process hollowing\processhollowing\src\release\processhollowing.iobj
d:\desktop\507\pe injection & process hollowing\processhollowing\src\processhollowing\release\processhollowing.tlog\cl.command.1.tlog
d:\desktop\507\pe injection & process hollowing\processhollowing\src\processhollowing\release\processhollowing.tlog\cl.read.1.tlog
d:\desktop\507\pe injection & process hollowing\processhollowing\src\processhollowing\release\processhollowing.tlog\cl.write.1.tlog
d:\desktop\507\pe injection & process hollowing\processhollowing\src\processhollowing\release\processhollowing.tlog\link.command.1.tlog
d:\desktop\507\pe injection & process hollowing\processhollowing\src\processhollowing\release\processhollowing.tlog\link.read.1.tlog
d:\desktop\507\pe injection & process hollowing\processhollowing\src\processhollowing\release\processhollowing.tlog\link.write.1.tlog
d:\desktop\507\pe injection & process hollowing\processhollowing\src\processhollowing\release\processhollowing.tlog\processhollowing.write.1u.tlog
